…
`tidyde` includes `broom`-like methods for cleaning differential
expression fit results, although it currently is not officially
supported by `broom`. I’m actively working on that. The `tidy()`
function in `broom` puts results into a tidy data frame.

``` r
tidy.marray.lm(res)
#> # A tibble: 11,532 x 8
#>    gene    estimate std.error statistic p.value conf.low conf.high
#>    <chr>      <dbl>     <dbl>     <dbl>   <dbl>    <dbl>     <dbl>
#>  1 27395   0.173        0.686   0.580    0.574  -0.484       0.829
#>  2 18777   0.404        0.267   2.50     0.0298  0.0479      0.760
#>  3 21399   0.0261       0.442   0.131    0.898  -0.415       0.467
#>  4 108664  0.572        1.33    1.65     0.129  -0.195       1.34 
#>  5 12421  -0.000491     0.455  -0.00242  0.998  -0.448       0.447
#>  6 319263  0.382        0.348   2.15     0.0549 -0.00967     0.773
#>  7 59014   0.201        0.794   0.752    0.468  -0.390       0.793
#>  8 76187   1.42         7.42    1.21     0.253  -1.18        4.03 
#>  9 17864  -0.859        2.31   -1.50     0.163  -2.12        0.406
#> 10 70675  -0.0639       0.415  -0.330    0.748  -0.491       0.364
#> # … with 11,522 more rows, and 1 more variable: stringsAsFactors <lgl>
```
…
